<svg width="1024" height="1024" viewBox="0 0 1024 1024" fill="none" xmlns="http://www.w3.org/2000/svg">
<rect width="1024" height="1024" fill="white"/>
<path d="M897 514.14C897 410.645 833.868 322.675 744.863 284.382C708.64 191.237 617.565 125 512 125C406.435 125 315.36 191.237 279.137 284.382C190.132 322.675 127 410.645 127 514.14C127 617.634 191.167 707.675 281.207 744.933C318.465 834.973 408.505 899.14 512 899.14C615.495 899.14 705.535 834.973 742.793 744.933C832.833 707.675 897 618.669 897 514.14ZM512 163.293C589.621 163.293 657.927 205.726 694.151 268.858C678.626 265.753 663.102 264.718 647.578 264.718C598.936 264.718 552.363 278.172 512 305.081C472.672 280.242 426.099 264.718 376.422 264.718C360.898 264.718 344.339 266.788 329.849 268.858C366.073 206.761 434.379 163.293 512 163.293ZM723.129 374.422C723.129 455.148 679.661 525.524 615.495 561.747C622.739 547.258 625.844 530.699 625.844 514.14C625.844 441.694 594.796 375.457 544.083 329.919C575.132 312.325 610.32 303.011 646.543 303.011C669.312 303.011 692.081 307.151 712.78 314.395C720.024 333.024 723.129 353.723 723.129 374.422ZM712.78 714.919C692.081 721.129 670.347 725.269 647.578 725.269C568.922 725.269 499.581 681.801 463.358 617.634C477.847 624.879 494.406 629.019 512 629.019H513.035C585.481 629.019 650.683 596.935 696.22 547.258C712.78 579.341 723.129 617.634 723.129 650.753C723.129 672.487 718.989 694.22 712.78 714.919ZM300.871 649.718C300.871 571.062 344.339 501.72 408.505 465.497C401.261 479.987 397.121 496.546 397.121 514.14C397.121 587.621 429.204 653.857 479.917 700.43C443.694 722.164 400.226 725.269 375.387 725.269C352.618 725.269 330.884 721.129 310.185 714.919C305.011 694.22 300.871 672.487 300.871 649.718ZM310.185 314.395C330.884 307.151 353.653 303.011 376.422 303.011C455.078 303.011 524.419 346.478 560.642 410.645C546.153 403.401 529.594 399.261 512 399.261C439.554 399.261 375.387 430.309 328.815 478.952C310.185 446.868 300.871 410.645 300.871 373.387C300.871 353.723 303.976 333.024 310.185 314.395ZM436.449 514.14C436.449 472.742 470.602 438.589 512 438.589C553.398 438.589 587.551 472.742 587.551 514.14C587.551 555.538 553.398 589.691 512 589.691C470.602 589.691 436.449 555.538 436.449 514.14ZM165.293 514.14C165.293 438.589 205.656 372.352 265.683 335.094C263.613 347.513 262.578 360.968 262.578 374.422C262.578 424.099 277.067 470.672 303.976 512.07C278.102 551.398 262.578 599.005 262.578 649.718C262.578 665.242 263.613 679.731 266.718 694.22C206.691 656.962 165.293 589.691 165.293 514.14ZM512 860.847C436.449 860.847 369.177 820.484 331.919 760.457C346.409 762.527 360.898 764.597 376.422 764.597C414.715 764.597 469.567 757.352 514.07 725.269C552.363 750.107 598.936 764.597 647.578 764.597C663.102 764.597 677.591 763.562 692.081 760.457C654.823 820.484 588.586 860.847 512 860.847ZM757.282 694.22C759.352 679.731 761.422 665.242 761.422 649.718C761.422 605.215 746.933 554.503 722.094 514.14L721.059 513.105C746.933 473.777 761.422 426.169 761.422 375.457C761.422 362.003 760.387 348.548 758.317 336.129C818.344 373.387 858.707 439.624 858.707 515.175C858.707 589.691 818.344 656.962 757.282 694.22Z" fill="#FF3913"/>
<path d="M897 514.14C897 410.645 833.868 322.675 744.863 284.382C708.64 191.237 617.565 125 512 125C406.435 125 315.36 191.237 279.137 284.382C190.132 322.675 127 410.645 127 514.14C127 617.634 191.167 707.675 281.207 744.933C318.465 834.973 408.505 899.14 512 899.14C615.495 899.14 705.535 834.973 742.793 744.933C832.833 707.675 897 618.669 897 514.14ZM512 163.293C589.621 163.293 657.927 205.726 694.151 268.858C678.626 265.753 663.102 264.718 647.578 264.718C598.936 264.718 552.363 278.172 512 305.081C472.672 280.242 426.099 264.718 376.422 264.718C360.898 264.718 344.339 266.788 329.849 268.858C366.073 206.761 434.379 163.293 512 163.293ZM723.129 374.422C723.129 455.148 679.661 525.524 615.495 561.747C622.739 547.258 625.844 530.699 625.844 514.14C625.844 441.694 594.796 375.457 544.083 329.919C575.132 312.325 610.32 303.011 646.543 303.011C669.312 303.011 692.081 307.151 712.78 314.395C720.024 333.024 723.129 353.723 723.129 374.422ZM712.78 714.919C692.081 721.129 670.347 725.269 647.578 725.269C568.922 725.269 499.581 681.801 463.358 617.634C477.847 624.879 494.406 629.019 512 629.019H513.035C585.481 629.019 650.683 596.935 696.22 547.258C712.78 579.341 723.129 617.634 723.129 650.753C723.129 672.487 718.989 694.22 712.78 714.919ZM300.871 649.718C300.871 571.062 344.339 501.72 408.505 465.497C401.261 479.987 397.121 496.546 397.121 514.14C397.121 587.621 429.204 653.857 479.917 700.43C443.694 722.164 400.226 725.269 375.387 725.269C352.618 725.269 330.884 721.129 310.185 714.919C305.011 694.22 300.871 672.487 300.871 649.718ZM310.185 314.395C330.884 307.151 353.653 303.011 376.422 303.011C455.078 303.011 524.419 346.478 560.642 410.645C546.153 403.401 529.594 399.261 512 399.261C439.554 399.261 375.387 430.309 328.815 478.952C310.185 446.868 300.871 410.645 300.871 373.387C300.871 353.723 303.976 333.024 310.185 314.395ZM436.449 514.14C436.449 472.742 470.602 438.589 512 438.589C553.398 438.589 587.551 472.742 587.551 514.14C587.551 555.538 553.398 589.691 512 589.691C470.602 589.691 436.449 555.538 436.449 514.14ZM165.293 514.14C165.293 438.589 205.656 372.352 265.683 335.094C263.613 347.513 262.578 360.968 262.578 374.422C262.578 424.099 277.067 470.672 303.976 512.07C278.102 551.398 262.578 599.005 262.578 649.718C262.578 665.242 263.613 679.731 266.718 694.22C206.691 656.962 165.293 589.691 165.293 514.14ZM512 860.847C436.449 860.847 369.177 820.484 331.919 760.457C346.409 762.527 360.898 764.597 376.422 764.597C414.715 764.597 469.567 757.352 514.07 725.269C552.363 750.107 598.936 764.597 647.578 764.597C663.102 764.597 677.591 763.562 692.081 760.457C654.823 820.484 588.586 860.847 512 860.847ZM757.282 694.22C759.352 679.731 761.422 665.242 761.422 649.718C761.422 605.215 746.933 554.503 722.094 514.14L721.059 513.105C746.933 473.777 761.422 426.169 761.422 375.457C761.422 362.003 760.387 348.548 758.317 336.129C818.344 373.387 858.707 439.624 858.707 515.175C858.707 589.691 818.344 656.962 757.282 694.22Z" fill="url(#paint0_linear)"/>
<defs>
<linearGradient id="paint0_linear" x1="512" y1="125" x2="512" y2="899.14" gradientUnits="userSpaceOnUse">
<stop stop-color="#FFBF14" stop-opacity="0.7"/>
<stop offset="1" stop-color="#FFBF14" stop-opacity="0"/>
</linearGradient>
</defs>
</svg>
